…
``` r
iris <- as_tibble(iris)
iris
```

    ## # A tibble: 150 x 5
    ##    Sepal.Length Sepal.Width Petal.Length Petal.Width Species
    ##           <dbl>       <dbl>        <dbl>       <dbl> <fct>  
    ##  1          5.1         3.5          1.4         0.2 setosa 
    ##  2          4.9         3            1.4         0.2 setosa 
    ##  3          4.7         3.2          1.3         0.2 setosa 
    ##  4          4.6         3.1          1.5         0.2 setosa 
    ##  5          5           3.6          1.4         0.2 setosa 
    ##  6          5.4         3.9          1.7         0.4 setosa 
    ##  7          4.6         3.4          1.4         0.3 setosa 
    ##  8          5           3.4          1.5         0.2 setosa 
    ##  9          4.4         2.9          1.4         0.2 setosa 
    ## 10          4.9         3.1          1.5         0.1 setosa 
    ## # ... with 140 more rows
…
iris_new <- 
  rename(
    iris,
    sepal_length = Sepal.Length,
    sepal_width = Sepal.Width,
    petal_length = Petal.Length,
    petal_width = Petal.Width
  )

iris_new
```

    ## # A tibble: 150 x 5
    ##    sepal_length sepal_width petal_length petal_width Species
    ##           <dbl>       <dbl>        <dbl>       <dbl> <fct>  
    ##  1          5.1         3.5          1.4         0.2 setosa 
    ##  2          4.9         3            1.4         0.2 setosa 
    ##  3          4.7         3.2          1.3         0.2 setosa 
    ##  4          4.6         3.1          1.5         0.2 setosa 
    ##  5          5           3.6          1.4         0.2 setosa 
    ##  6          5.4         3.9          1.7         0.4 setosa 
    ##  7          4.6         3.4          1.4         0.3 setosa 
    ##  8          5           3.4          1.5         0.2 setosa 
    ##  9          4.4         2.9          1.4         0.2 setosa 
    ## 10          4.9         3.1          1.5         0.1 setosa 
    ## # ... with 140 more rows

2.  Convert the four numerical variables from cm to mm by multiplying by
    10. Print the resulting table.

<!-- end list -->

``` r
# question 2 -------------------------------

iris_numbers<- select(iris_new, sepal_length, sepal_width, petal_length, petal_width)
iris_numbers
```

    ## # A tibble: 150 x 4
    ##    sepal_length sepal_width petal_length petal_width
    ##           <dbl>       <dbl>        <dbl>       <dbl>
    ##  1          5.1         3.5          1.4         0.2
    ##  2          4.9         3            1.4         0.2
    ##  3          4.7         3.2          1.3         0.2
    ##  4          4.6         3.1          1.5         0.2
    ##  5          5           3.6          1.4         0.2
    ##  6          5.4         3.9          1.7         0.4
    ##  7          4.6         3.4          1.4         0.3
    ##  8          5           3.4          1.5         0.2
    ##  9          4.4         2.9          1.4         0.2
    ## 10          4.9         3.1          1.5         0.1
    ## # ... with 140 more rows

``` r
mutate(iris_new, iris_numbers = iris_numbers * 10)
```

    ## # A tibble: 150 x 6
    ##    sepal_length sepal_width petal_length petal_width Species iris_numbers$se~
    ##           <dbl>       <dbl>        <dbl>       <dbl> <fct>              <dbl>
    ##  1          5.1         3.5          1.4         0.2 setosa                51
    ##  2          4.9         3            1.4         0.2 setosa                49
    ##  3          4.7         3.2          1.3         0.2 setosa                47
    ##  4          4.6         3.1          1.5         0.2 setosa                46
    ##  5          5           3.6          1.4         0.2 setosa                50
    ##  6          5.4         3.9          1.7         0.4 setosa                54
    ##  7          4.6         3.4          1.4         0.3 setosa                46
    ##  8          5           3.4          1.5         0.2 setosa                50
    ##  9          4.4         2.9          1.4         0.2 setosa                44
    ## 10          4.9         3.1          1.5         0.1 setosa                49
    ## # ... with 140 more rows, and 3 more variables: $sepal_width <dbl>,
    ## #   $petal_length <dbl>, $petal_width <dbl>

3.  Calculate sepal area and petal area (area is equal to length
    multiplied by width). Print a table with only the variables sepal
    area, petal area, and species.

<!-- end list -->

``` r
# question 3 -------------------------------

Q3 <-mutate(iris_new, sepal_area = sepal_length * sepal_width, petal_area = petal_length * petal_width)
Q3
```

    ## # A tibble: 150 x 7
    ##    sepal_length sepal_width petal_length petal_width Species sepal_area
    ##           <dbl>       <dbl>        <dbl>       <dbl> <fct>        <dbl>
    ##  1          5.1         3.5          1.4         0.2 setosa        17.8
    ##  2          4.9         3            1.4         0.2 setosa        14.7
    ##  3          4.7         3.2          1.3         0.2 setosa        15.0
    ##  4          4.6         3.1          1.5         0.2 setosa        14.3
    ##  5          5           3.6          1.4         0.2 setosa        18  
    ##  6          5.4         3.9          1.7         0.4 setosa        21.1
    ##  7          4.6         3.4          1.4         0.3 setosa        15.6
    ##  8          5           3.4          1.5         0.2 setosa        17  
    ##  9          4.4         2.9          1.4         0.2 setosa        12.8
    ## 10          4.9         3.1          1.5         0.1 setosa        15.2
    ## # ... with 140 more rows, and 1 more variable: petal_area <dbl>

``` r
Q3.5 <- select(Q3, sepal_area, petal_area)
Q3.5
```

    ## # A tibble: 150 x 2
    ##    sepal_area petal_area
    ##         <dbl>      <dbl>
    ##  1       17.8      0.280
    ##  2       14.7      0.280
    ##  3       15.0      0.26 
    ##  4       14.3      0.3  
    ##  5       18        0.280
    ##  6       21.1      0.68 
    ##  7       15.6      0.42 
    ##  8       17        0.3  
    ##  9       12.8      0.280
    ## 10       15.2      0.15 
    ## # ... with 140 more rows
…
